{
  "response": {
    "status": 200,
    "message": "OK",
    "pageNumber": 1,
    "pageSize": 1,
    "pageCount": 270,
    "startIndex": 1,
    "totalSize": 270,
    "links": [
      {
        "rel": "self",
        "href": "/resource-services/asn-delegations?page-number=1&page-size=1"
      },
      {
        "rel": "next",
        "href": "/resource-services/asn-delegations?page-number=2&page-size=1"
      },
      {
        "rel": "last",
        "href": "/resource-services/asn-delegations?page-number=270&page-size=1"
      }
    ],
    "results": [
      {
        "range": "AS7-AS7",
        "comment": "ERX"
      }
    ]
  }
}
